<?xml version="1.0" encoding="utf-8"?>
<!-- Generator: Adobe Illustrator 16.2.1, SVG Export Plug-In . SVG Version: 6.00 Build 0)  -->
<!DOCTYPE svg PUBLIC "-//W3C//DTD SVG 1.1//EN" "http://www.w3.org/Graphics/SVG/1.1/DTD/svg11.dtd">
<svg version="1.1" id="Ebene_1" xmlns="http://www.w3.org/2000/svg" xmlns:xlink="http://www.w3.org/1999/xlink" x="0px" y="0px"
	 width="791px" height="792px" viewBox="0 0 791 792" enable-background="new 0 0 791 792" xml:space="preserve">
<g id="Layer_2">
	<rect x="1" y="-0.5" fill="none" width="790" height="792"/>
</g>
<rect y="-0.5" fill="#BF9A00" width="791" height="792"/>
<g>
	<path fill="#FFFFFF" d="M209.061,322.881v-13.554c0-11.722,2.502-21.916,7.51-30.587c5.006-8.669,14.164-17.886,27.474-27.657
		c12.821-9.158,21.275-16.604,25.368-22.345c4.089-5.738,6.135-12.148,6.135-19.232c0-7.935-2.931-13.98-8.791-18.132
		c-5.861-4.149-14.043-6.227-24.543-6.227c-18.316,0-39.196,5.984-62.641,17.949l-19.964-40.112
		c27.228-15.261,56.107-22.895,86.634-22.895c25.153,0,45.149,6.043,59.984,18.132c14.837,12.088,22.255,28.207,22.255,48.354
		c0,13.434-3.054,25.033-9.158,34.8c-6.108,9.771-17.706,20.76-34.8,32.968c-11.722,8.672-19.139,15.266-22.254,19.781
		c-3.113,4.518-4.67,10.439-4.67,17.767v10.989L209.061,322.881L209.061,322.881z M203.2,385.521c0-10.257,2.748-18.01,8.243-23.261
		c5.495-5.249,13.491-7.876,23.994-7.876c10.134,0,17.978,2.687,23.536,8.06c5.555,5.375,8.334,13.066,8.334,23.078
		c0,9.647-2.81,17.249-8.425,22.804c-5.617,5.555-13.434,8.334-23.444,8.334c-10.257,0-18.196-2.719-23.81-8.151
		C206.008,403.075,203.2,395.411,203.2,385.521z"/>
</g>
<g>
	<path fill="#FFFFFF" d="M437.413,505.274v-22.587c0-19.534,4.168-36.521,12.512-50.971c8.342-14.446,23.603-29.807,45.783-46.087
		c21.364-15.262,35.452-27.67,42.272-37.236c6.813-9.562,10.223-20.244,10.223-32.048c0-13.224-4.883-23.296-14.648-30.216
		c-9.768-6.916-23.401-10.377-40.9-10.377c-30.521,0-65.315,9.971-104.382,29.91l-33.268-66.841
		C400.375,213.39,448.5,200.67,499.37,200.67c41.915,0,75.234,10.071,99.956,30.216c24.725,20.144,37.085,47.002,37.085,80.577
		c0,22.385-5.089,41.715-15.261,57.99c-10.178,16.282-29.505,34.595-57.992,54.939c-19.532,14.45-31.894,25.437-37.084,32.964
		c-5.187,7.528-7.78,17.396-7.78,29.605v18.313H437.413z M427.646,609.656c0-17.092,4.579-30.012,13.734-38.764
		c9.157-8.745,22.481-13.124,39.983-13.124c16.888,0,29.957,4.478,39.22,13.43c9.256,8.956,13.887,21.776,13.887,38.457
		c0,16.075-4.684,28.742-14.039,37.999c-9.362,9.258-22.386,13.888-39.067,13.888c-17.092,0-30.32-4.531-39.678-13.583
		C432.325,638.908,427.646,626.138,427.646,609.656z"/>
</g>
</svg>
